{
  "api": "warehouse_api",
  "page": 1,
  "page_size": 5,
  "total_pages": 5,
  "total_records": 23,
  "data": [
    {
      "warehouse_id": "47378190-96da-4dac-b2ff-5d2a386ecbe0",
      "created_at": "2026-03-02 18:02:05"
    },
    {
      "warehouse_id": "371ecd7b-27cd-4130-8722-9389571aa876",
      "created_at": "2026-03-02 18:52:49"
    },
    {
      "warehouse_id": "6c307511-b2b9-437a-a8df-6ec4ce4a2bbd",
      "created_at": "2026-03-02 01:28:31"
    },
    {
      "warehouse_id": "6b65a6a4-8b81-48f6-b38a-088ca65ed389",
      "created_at": "2026-03-02 23:05:04"
    },
    {
      "warehouse_id": "c241330b-01a9-471f-9e8a-774bcf36d58b",
      "created_at": "2026-03-02 14:55:07"
    }
  ]
}