{
  "api": "warehouse_api",
  "page": 4,
  "page_size": 5,
  "total_pages": 5,
  "total_records": 23,
  "data": [
    {
      "warehouse_id": "b74d0fb1-32e7-4629-8fad-c1a606cb0fb3",
      "created_at": "2026-03-03 16:44:23"
    },
    {
      "warehouse_id": "b74d0fb1-32e7-4629-8fad-c1a606cb0fb3",
      "created_at": "2026-03-03 04:27:03"
    },
    {
      "warehouse_id": "5be6128e-18c2-4797-a142-ea7d17be3111",
      "created_at": "2026-03-04 01:28:31"
    },
    {
      "warehouse_id": "5be6128e-18c2-4797-a142-ea7d17be3111",
      "created_at": "2026-03-04 23:05:04"
    },
    {
      "warehouse_id": "5be6128e-18c2-4797-a142-ea7d17be3111",
      "created_at": "2026-03-04 14:55:07"
    }
  ]
}