{
  "api": "warehouse_api",
  "page": 5,
  "page_size": 5,
  "total_pages": 5,
  "total_records": 23,
  "data": [
    {
      "warehouse_id": "7412b293-4729-4739-a14f-f3d719db3ad0",
      "created_at": "2026-03-05 16:25:50"
    },
    {
      "warehouse_id": "7412b293-4729-4739-a14f-f3d719db3ad0",
      "created_at": "2026-03-05 18:15:25"
    },
    {
      "warehouse_id": "7412b293-4729-4739-a14f-f3d719db3ad0",
      "created_at": "2026-03-05 23:30:54"
    }
  ]
}